Data Science for Public Policy, Assignment 3
…
younglives_data <- read_excel("younglives-data.xlsx")

## Warning in read_fun(path = enc2native(normalizePath(path)), sheet_i =
## sheet, : Expecting logical in AM1662 / R1662C39: got 'nothing'

Introduction

The data used in this assignment is from the Young Lives: an International Study of Childhood Poverty project, collected by the U.K. Data Service. This is a longitudinal dataset following two cohorts of children every 3-4 years from 2002 to 2016 in India. The specific data used in this project is from 2006 and focuses on two states on Indias east coast, Telangana and Andhra Pradesh.

The projects key objectives are to improve the understanding of causes and consequences of childhood poverty and to inform and the development and implementation of future policies and practices that will reduce childhood poverty (Young Lives). This project will discuss a few of the key variables and relationships relevant to childhood poverty in India.

younglives_data

## # A tibble: 1,866 x 162
##    childid sex_r2 hhsize_r2 headid clustid_r2 commid_r2 typesite_r2
##    <chr>   <chr>      <dbl>  <dbl>      <dbl> <chr>     <chr>      
##  1 IN2000 female         4      1         20 IN089     urban      
##  2 IN1300 male           7      2         13 IN044     rural      
##  3 IN1200 male          18      2         12 IN042     rural      
##  4 IN1700 male           7      2         17 IN062     rural      
##  5 IN1200 male           4      1         12 IN041     rural      
##  6 IN1600 male           4      1         90 IN212     urban      
##  7 IN0400 male           5      1          4 IN009     rural      
##  8 IN1800 female         5      1         18 IN066     rural      
##  9 IN1700 male           4      3         17 IN063     rural      
## 10 IN0600 female         8      1          6 IN013     rural      
## #  with 1,856 more rows, and 155 more variables: region_r2 <chr>,
## #   mvdtypr2 <chr>, dint_r2 <dttm>, daded <chr>, mumed <chr>,
## #   careed <chr>, chldeth <chr>, chldrel <chr>, drought <chr>,
## #   rain_flood <chr>, erosion <chr>, frosts <chr>, croppests <chr>,
## #   cropfail <chr>, storagepests <chr>, livestockpests <chr>,
## #   drought_response1 <chr>, rain_flood_response1 <chr>,
## #   erosion_response1 <lgl>, frosts_response1 <chr>,
## #   croppests_response1 <chr>, cropfail_response1 <chr>,
## #   storagepests_response1 <chr>, livestockpests_response1 <chr>,
…
